{
  "project_info": {
    "project_number": "182466078264",
    "project_id": "sonuauth",
    "storage_bucket": "sonuauth.appspot.com"
  },
  "client": [
    {
      "client_info": {
        "mobilesdk_app_id": "1:182466078264:android:448e03a6e525c5af3da8cd",
        "android_client_info": {
          "package_name": "com.example.sonuauth"
        }
      },
      "oauth_client": [
        {
          "client_id": "182466078264-2t25vaitd85scga7op0mosepdnjataq6.apps.googleusercontent.com",
          "client_type": 3
        }
      ],
      "api_key": [
        {
          "current_key": "AIzaSyAr8mSFYRSQU3P6k5rbcEWZI_vczgcSp-0"
        }
      ],
      "services": {
        "appinvite_service": {
          "other_platform_oauth_client": [
            {
              "client_id": "182466078264-2t25vaitd85scga7op0mosepdnjataq6.apps.googleusercontent.com",
              "client_type": 3
            }
          ]
        }
      }
    }
  ],
  "configuration_version": "1"
}